{
   "info":{
      "count":826,
      "pages":42,
      "next":"https://rickandmortyapi.com/api/character?page=2",
      "prev":null
   },
   "results":[
      {
         "id":1,
         "name":"Rick Sanchez",
         "status":"Alive",
         "species":"Human",
         "gender":"Male",
         "location":{
            "name":"Citadel of Ricks",
            "url":"https://rickandmortyapi.com/api/location/3"
         },
         "image":"https://rickandmortyapi.com/api/character/avatar/1.jpeg"
      },
      {
         "id":2,
         "name":"Morty Smith",
         "status":"Alive",
         "species":"Human",
         "gender":"Male",
         "location":{
            "name":"Citadel of Ricks",
            "url":"https://rickandmortyapi.com/api/location/3"
         },
         "image":"https://rickandmortyapi.com/api/character/avatar/2.jpeg"
      },
      {
         "id":3,
         "name":"Summer Smith",
         "status":"unknown",
         "species":"Human",
         "gender":"Female",
         "location":{
            "name":"Earth (Replacement Dimension)",
            "url":"https://rickandmortyapi.com/api/location/20"
         },
         "image":"https://rickandmortyapi.com/api/character/avatar/3.jpeg"
      },
      {
         "id":4,
         "name":"Beth Smith",
         "status":"unknown",
         "species":"Human",
         "gender":"Female",
         "location":{
            "name":"Earth (Replacement Dimension)",
            "url":"https://rickandmortyapi.com/api/location/20"
         },
         "image":"https://rickandmortyapi.com/api/character/avatar/4.jpeg"
      },
      {
         "id":5,
         "name":"Jerry Smith",
         "status":"Dead",
         "species":"Human",
         "gender":"Male",
         "location":{
            "name":"Earth (Replacement Dimension)",
            "url":"https://rickandmortyapi.com/api/location/20"
         },
         "image":"https://rickandmortyapi.com/api/character/avatar/5.jpeg"
      },
      {
         "id":6,
         "name":"Abadango Cluster Princess",
         "status":"Dead",
         "species":"Alien",
         "gender":"Female",
         "location":{
            "name":"Abadango",
            "url":"https://rickandmortyapi.com/api/location/2"
         },
         "image":"https://rickandmortyapi.com/api/character/avatar/6.jpeg"
      }
   ]
}
